%YAML 1.1
%TAG !u! tag:unity3d.com,2011:
--- !u!1 &5963937743390997974
GameObject:
  m_ObjectHideFlags: 0
  m_CorrespondingSourceObject: {fileID: 0}
  m_PrefabInstance: {fileID: 0}
  m_PrefabAsset: {fileID: 0}
  serializedVersion: 6
  m_Component:
  - component: {fileID: 5963937743390997973}
  m_Layer: 0
  m_Name: Floor_6x6_With_hole
  m_TagString: Untagged
  m_Icon: {fileID: 0}
  m_NavMeshLayer: 0
  m_StaticEditorFlags: 0
  m_IsActive: 1
--- !u!4 &5963937743390997973
Transform:
  m_ObjectHideFlags: 0
  m_CorrespondingSourceObject: {fileID: 0}
  m_PrefabInstance: {fileID: 0}
  m_PrefabAsset: {fileID: 0}
  m_GameObject: {fileID: 5963937743390997974}
  m_LocalRotation: {x: 0, y: 0, z: 0, w: 1}
  m_LocalPosition: {x: 0, y: 0, z: 0}
  m_LocalScale: {x: 1, y: 1, z: 1}
  m_Children:
  - {fileID: 5549495167067535601}
  - {fileID: 4042095559288782582}
  - {fileID: 9125532480248172248}
  m_Father: {fileID: 0}
  m_RootOrder: 0
  m_LocalEulerAnglesHint: {x: 0, y: 0, z: 0}
--- !u!1001 &2290060293739627812
PrefabInstance:
  m_ObjectHideFlags: 0
  serializedVersion: 2
  m_Modification:
    m_TransformParent: {fileID: 5963937743390997973}
    m_Modifications:
    - target: {fileID: 145138941627797615, guid: d5920ec2e9589fa49af231931214586b,
        type: 3}
      propertyPath: m_Mesh
      value: 
      objectReference: {fileID: 0}
    - target: {fileID: 215082247967502298, guid: d5920ec2e9589fa49af231931214586b,
        type: 3}
      propertyPath: m_Mesh
      value: 
      objectReference: {fileID: 0}
    - target: {fileID: 414537595972023990, guid: d5920ec2e9589fa49af231931214586b,
        type: 3}
      propertyPath: m_Mesh
      value: 
      objectReference: {fileID: 0}
    - target: {fileID: 546100121944603832, guid: d5920ec2e9589fa49af231931214586b,
        type: 3}
      propertyPath: m_Mesh
      value: 
      objectReference: {fileID: 0}
    - target: {fileID: 578887857024244448, guid: d5920ec2e9589fa49af231931214586b,
        type: 3}
      propertyPath: m_Mesh
      value: 
      objectReference: {fileID: 0}
    - target: {fileID: 701348370519680124, guid: d5920ec2e9589fa49af231931214586b,
        type: 3}
      propertyPath: m_Mesh
      value: 
      objectReference: {fileID: 0}
    - target: {fileID: 757054523334673586, guid: d5920ec2e9589fa49af231931214586b,
        type: 3}
      propertyPath: m_Mesh
      value: 
      objectReference: {fileID: 0}
    - target: {fileID: 845199148273818839, guid: d5920ec2e9589fa49af231931214586b,
        type: 3}
      propertyPath: m_Mesh
      value: 
      objectReference: {fileID: 0}
    - target: {fileID: 924279849781671710, guid: d5920ec2e9589fa49af231931214586b,
        type: 3}
      propertyPath: m_Mesh
      value: 
      objectReference: {fileID: 0}
    - target: {fileID: 1056878222353102642, guid: d5920ec2e9589fa49af231931214586b,
        type: 3}
      propertyPath: m_Mesh
      value: 
      objectReference: {fileID: 0}
    - target: {fileID: 1239641511680789382, guid: d5920ec2e9589fa49af231931214586b,
        type: 3}
      propertyPath: m_Mesh
      value: 
      objectReference: {fileID: 0}
    - target: {fileID: 1282047309189954618, guid: d5920ec2e9589fa49af231931214586b,
        type: 3}
      propertyPath: m_Mesh
      value: 
      objectReference: {fileID: 0}
    - target: {fileID: 1595476633286496449, guid: d5920ec2e9589fa49af231931214586b,
        type: 3}
      propertyPath: m_Mesh
      value: 
      objectReference: {fileID: 0}
    - target: {fileID: 1798155824799872944, guid: d5920ec2e9589fa49af231931214586b,
        type: 3}
      propertyPath: m_Mesh
      value: 
      objectReference: {fileID: 0}
    - target: {fileID: 1913237877622618012, guid: d5920ec2e9589fa49af231931214586b,
        type: 3}
      propertyPath: m_Mesh
      value: 
      objectReference: {fileID: 0}
    - target: {fileID: 2117770453379308391, guid: d5920ec2e9589fa49af231931214586b,
        type: 3}
      propertyPath: m_Mesh
      value: 
      objectReference: {fileID: 0}
    - target: {fileID: 2133675099640341714, guid: d5920ec2e9589fa49af231931214586b,
        type: 3}
      propertyPath: m_Mesh
      value: 
      objectReference: {fileID: 0}
    - target: {fileID: 2141453640644857204, guid: d5920ec2e9589fa49af231931214586b,
        type: 3}
      propertyPath: m_Mesh
      value: 
      objectReference: {fileID: 0}
    - target: {fileID: 2163319812749511491, guid: d5920ec2e9589fa49af231931214586b,
        type: 3}
      propertyPath: m_Mesh
      value: 
      objectReference: {fileID: 0}
    - target: {fileID: 2194719559465597314, guid: d5920ec2e9589fa49af231931214586b,
        type: 3}
      propertyPath: m_Mesh
      value: 
      objectReference: {fileID: 0}
    - target: {fileID: 2331935834221718204, guid: d5920ec2e9589fa49af231931214586b,
        type: 3}
      propertyPath: m_Mesh
      value: 
      objectReference: {fileID: 0}
    - target: {fileID: 2342239643430556351, guid: d5920ec2e9589fa49af231931214586b,
        type: 3}
      propertyPath: m_Mesh
      value: 
      objectReference: {fileID: 0}
    - target: {fileID: 2589266444314176651, guid: d5920ec2e9589fa49af231931214586b,
        type: 3}
      propertyPath: m_Mesh
      value: 
      objectReference: {fileID: 0}
    - target: {fileID: 2674890542381158520, guid: d5920ec2e9589fa49af231931214586b,
        type: 3}
      propertyPath: m_Mesh
      value: 
      objectReference: {fileID: 0}
    - target: {fileID: 2680961509564905950, guid: d5920ec2e9589fa49af231931214586b,
        type: 3}
      propertyPath: m_Mesh
      value: 
      objectReference: {fileID: 0}
    - target: {fileID: 2776169124093050857, guid: d5920ec2e9589fa49af231931214586b,
        type: 3}
      propertyPath: m_Mesh
      value: 
      objectReference: {fileID: 0}
    - target: {fileID: 2825376327405748597, guid: d5920ec2e9589fa49af231931214586b,
        type: 3}
      propertyPath: m_Mesh
      value: 
      objectReference: {fileID: 0}
    - target: {fileID: 2826096416602043465, guid: d5920ec2e9589fa49af231931214586b,
        type: 3}
      propertyPath: m_Mesh
      value: 
      objectReference: {fileID: 0}
    - target: {fileID: 2916482196691879501, guid: d5920ec2e9589fa49af231931214586b,
        type: 3}
      propertyPath: m_Mesh
      value: 
      objectReference: {fileID: 0}
    - target: {fileID: 3202710548417792723, guid: d5920ec2e9589fa49af231931214586b,
        type: 3}
      propertyPath: m_Mesh
      value: 
      objectReference: {fileID: 0}
    - target: {fileID: 3440869032193401019, guid: d5920ec2e9589fa49af231931214586b,
        type: 3}
      propertyPath: m_Mesh
      value: 
      objectReference: {fileID: 0}
    - target: {fileID: 3546857750159495382, guid: d5920ec2e9589fa49af231931214586b,
        type: 3}
      propertyPath: m_Mesh
      value: 
      objectReference: {fileID: 0}
    - target: {fileID: 3680046033291051483, guid: d5920ec2e9589fa49af231931214586b,
        type: 3}
      propertyPath: m_Mesh
      value: 
      objectReference: {fileID: 0}
    - target: {fileID: 3868715268295519241, guid: d5920ec2e9589fa49af231931214586b,
        type: 3}
      propertyPath: m_Mesh
      value: 
      objectReference: {fileID: 0}
    - target: {fileID: 3891725116962712126, guid: d5920ec2e9589fa49af231931214586b,
        type: 3}
      propertyPath: m_Mesh
      value: 
      objectReference: {fileID: 0}
    - target: {fileID: 4114348562183916372, guid: d5920ec2e9589fa49af231931214586b,
        type: 3}
      propertyPath: m_Mesh
      value: 
      objectReference: {fileID: 0}
    - target: {fileID: 4215203080412502896, guid: d5920ec2e9589fa49af231931214586b,
        type: 3}
      propertyPath: m_Mesh
      value: 
      objectReference: {fileID: 0}
    - target: {fileID: 4227548962912587107, guid: d5920ec2e9589fa49af231931214586b,
        type: 3}
      propertyPath: m_Mesh
      value: 
      objectReference: {fileID: 0}
    - target: {fileID: 4671523691303748435, guid: d5920ec2e9589fa49af231931214586b,
        type: 3}
      propertyPath: m_Mesh
      value: 
      objectReference: {fileID: 0}
    - target: {fileID: 4672794059494635119, guid: d5920ec2e9589fa49af231931214586b,
        type: 3}
      propertyPath: m_Mesh
      value: 
      objectReference: {fileID: 0}
    - target: {fileID: 4891807238405166753, guid: d5920ec2e9589fa49af231931214586b,
        type: 3}
      propertyPath: m_Mesh
      value: 
      objectReference: {fileID: 0}
    - target: {fileID: 4962873702401150925, guid: d5920ec2e9589fa49af231931214586b,
        type: 3}
      propertyPath: m_Mesh
      value: 
      objectReference: {fileID: 0}
    - target: {fileID: 5083213517784696259, guid: d5920ec2e9589fa49af231931214586b,
        type: 3}
      propertyPath: m_Mesh
      value: 
      objectReference: {fileID: 0}
    - target: {fileID: 5172748767216938280, guid: d5920ec2e9589fa49af231931214586b,
        type: 3}
      propertyPath: m_Mesh
      value: 
      objectReference: {fileID: 0}
    - target: {fileID: 5200731347734058913, guid: d5920ec2e9589fa49af231931214586b,
        type: 3}
      propertyPath: m_Mesh
      value: 
      objectReference: {fileID: 0}
    - target: {fileID: 5431378143609932405, guid: d5920ec2e9589fa49af231931214586b,
        type: 3}
      propertyPath: m_Mesh
      value: 
      objectReference: {fileID: 0}
    - target: {fileID: 5448944307001900489, guid: d5920ec2e9589fa49af231931214586b,
        type: 3}
      propertyPath: m_Mesh
      value: 
      objectReference: {fileID: 0}
    - target: {fileID: 5735399942402868331, guid: d5920ec2e9589fa49af231931214586b,
        type: 3}
      propertyPath: m_Mesh
      value: 
      objectReference: {fileID: 0}
    - target: {fileID: 5824755026610373953, guid: d5920ec2e9589fa49af231931214586b,
        type: 3}
      propertyPath: m_Mesh
      value: 
      objectReference: {fileID: 0}
    - target: {fileID: 5963937743390997973, guid: d5920ec2e9589fa49af231931214586b,
        type: 3}
      propertyPath: m_RootOrder
      value: 0
      objectReference: {fileID: 0}
    - target: {fileID: 5963937743390997973, guid: d5920ec2e9589fa49af231931214586b,
        type: 3}
      propertyPath: m_LocalPosition.x
      value: 0
      objectReference: {fileID: 0}
    - target: {fileID: 5963937743390997973, guid: d5920ec2e9589fa49af231931214586b,
        type: 3}
      propertyPath: m_LocalPosition.y
      value: 0
      objectReference: {fileID: 0}
    - target: {fileID: 5963937743390997973, guid: d5920ec2e9589fa49af231931214586b,
        type: 3}
      propertyPath: m_LocalPosition.z
      value: 0
      objectReference: {fileID: 0}
    - target: {fileID: 5963937743390997973, guid: d5920ec2e9589fa49af231931214586b,
        type: 3}
      propertyPath: m_LocalRotation.w
      value: 1
      objectReference: {fileID: 0}
    - target: {fileID: 5963937743390997973, guid: d5920ec2e9589fa49af231931214586b,
        type: 3}
      propertyPath: m_LocalRotation.x
      value: 0
      objectReference: {fileID: 0}
    - target: {fileID: 5963937743390997973, guid: d5920ec2e9589fa49af231931214586b,
        type: 3}
      propertyPath: m_LocalRotation.y
      value: 0
      objectReference: {fileID: 0}
    - target: {fileID: 5963937743390997973, guid: d5920ec2e9589fa49af231931214586b,
        type: 3}
      propertyPath: m_LocalRotation.z
      value: 0
      objectReference: {fileID: 0}
    - target: {fileID: 5963937743390997973, guid: d5920ec2e9589fa49af231931214586b,
        type: 3}
      propertyPath: m_LocalEulerAnglesHint.x
      value: 0
      objectReference: {fileID: 0}
    - target: {fileID: 5963937743390997973, guid: d5920ec2e9589fa49af231931214586b,
        type: 3}
      propertyPath: m_LocalEulerAnglesHint.y
      value: 0
      objectReference: {fileID: 0}
    - target: {fileID: 5963937743390997973, guid: d5920ec2e9589fa49af231931214586b,
        type: 3}
      propertyPath: m_LocalEulerAnglesHint.z
      value: 0
      objectReference: {fileID: 0}
    - target: {fileID: 5963937743390997974, guid: d5920ec2e9589fa49af231931214586b,
        type: 3}
      propertyPath: m_Name
      value: Floor_3x3
      objectReference: {fileID: 0}
    - target: {fileID: 6124613892821546689, guid: d5920ec2e9589fa49af231931214586b,
        type: 3}
      propertyPath: m_Mesh
      value: 
      objectReference: {fileID: 0}
    - target: {fileID: 6258225107201889008, guid: d5920ec2e9589fa49af231931214586b,
        type: 3}
      propertyPath: m_Mesh
      value: 
      objectReference: {fileID: 0}
    - target: {fileID: 6365484799622879637, guid: d5920ec2e9589fa49af231931214586b,
        type: 3}
      propertyPath: m_Mesh
      value: 
      objectReference: {fileID: 0}
    - target: {fileID: 6611246107077854405, guid: d5920ec2e9589fa49af231931214586b,
        type: 3}
      propertyPath: m_Mesh
      value: 
      objectReference: {fileID: 0}
    - target: {fileID: 6664419149029483036, guid: d5920ec2e9589fa49af231931214586b,
        type: 3}
      propertyPath: m_Mesh
      value: 
      objectReference: {fileID: 0}
    - target: {fileID: 6719016274061282039, guid: d5920ec2e9589fa49af231931214586b,
        type: 3}
      propertyPath: m_Mesh
      value: 
      objectReference: {fileID: 0}
    - target: {fileID: 6782857558310061570, guid: d5920ec2e9589fa49af231931214586b,
        type: 3}
      propertyPath: m_Mesh
      value: 
      objectReference: {fileID: 0}
    - target: {fileID: 6964082765346037758, guid: d5920ec2e9589fa49af231931214586b,
        type: 3}
      propertyPath: m_Mesh
      value: 
      objectReference: {fileID: 0}
    - target: {fileID: 6977753984415919423, guid: d5920ec2e9589fa49af231931214586b,
        type: 3}
      propertyPath: m_Mesh
      value: 
      objectReference: {fileID: 0}
    - target: {fileID: 7140240834535594441, guid: d5920ec2e9589fa49af231931214586b,
        type: 3}
      propertyPath: m_Mesh
      value: 
      objectReference: {fileID: 0}
    - target: {fileID: 7190778521918480842, guid: d5920ec2e9589fa49af231931214586b,
        type: 3}
      propertyPath: m_Mesh
      value: 
      objectReference: {fileID: 0}
    - target: {fileID: 7395691204868043432, guid: d5920ec2e9589fa49af231931214586b,
        type: 3}
      propertyPath: m_Mesh
      value: 
      objectReference: {fileID: 0}
    - target: {fileID: 7724488543239910712, guid: d5920ec2e9589fa49af231931214586b,
        type: 3}
      propertyPath: m_Mesh
      value: 
      objectReference: {fileID: 0}
    - target: {fileID: 7806455152809356237, guid: d5920ec2e9589fa49af231931214586b,
        type: 3}
      propertyPath: m_Mesh
      value: 
      objectReference: {fileID: 0}
    - target: {fileID: 7885029645737636776, guid: d5920ec2e9589fa49af231931214586b,
        type: 3}
      propertyPath: m_Mesh
      value: 
      objectReference: {fileID: 0}
    - target: {fileID: 7951921425163871834, guid: d5920ec2e9589fa49af231931214586b,
        type: 3}
      propertyPath: m_Mesh
      value: 
      objectReference: {fileID: 0}
    - target: {fileID: 8062647075119918586, guid: d5920ec2e9589fa49af231931214586b,
        type: 3}
      propertyPath: m_Mesh
      value: 
      objectReference: {fileID: 0}
    - target: {fileID: 8197979915083076327, guid: d5920ec2e9589fa49af231931214586b,
        type: 3}
      propertyPath: m_Mesh
      value: 
      objectReference: {fileID: 0}
    - target: {fileID: 8472496723363144008, guid: d5920ec2e9589fa49af231931214586b,
        type: 3}
      propertyPath: m_Mesh
      value: 
      objectReference: {fileID: 0}
    - target: {fileID: 8563822149824232604, guid: d5920ec2e9589fa49af231931214586b,
        type: 3}
      propertyPath: m_Mesh
      value: 
      objectReference: {fileID: 0}
    - target: {fileID: 8736192575771657749, guid: d5920ec2e9589fa49af231931214586b,
        type: 3}
      propertyPath: m_Mesh
      value: 
      objectReference: {fileID: 0}
    - target: {fileID: 8890237844486218251, guid: d5920ec2e9589fa49af231931214586b,
        type: 3}
      propertyPath: m_Mesh
      value: 
      objectReference: {fileID: 0}
    - target: {fileID: 9037732081663129018, guid: d5920ec2e9589fa49af231931214586b,
        type: 3}
      propertyPath: m_Mesh
      value: 
      objectReference: {fileID: 0}
    m_RemovedComponents: []
  m_SourcePrefab: {fileID: 100100000, guid: d5920ec2e9589fa49af231931214586b, type: 3}
--- !u!4 &5549495167067535601 stripped
Transform:
  m_CorrespondingSourceObject: {fileID: 5963937743390997973, guid: d5920ec2e9589fa49af231931214586b,
    type: 3}
  m_PrefabInstance: {fileID: 2290060293739627812}
  m_PrefabAsset: {fileID: 0}
--- !u!1001 &3197642281408934669
PrefabInstance:
  m_ObjectHideFlags: 0
  serializedVersion: 2
  m_Modification:
    m_TransformParent: {fileID: 5963937743390997973}
    m_Modifications:
    - target: {fileID: 145138941627797615, guid: d5920ec2e9589fa49af231931214586b,
        type: 3}
      propertyPath: m_Mesh
      value: 
      objectReference: {fileID: 0}
    - target: {fileID: 215082247967502298, guid: d5920ec2e9589fa49af231931214586b,
        type: 3}
      propertyPath: m_Mesh
      value: 
      objectReference: {fileID: 0}
    - target: {fileID: 414537595972023990, guid: d5920ec2e9589fa49af231931214586b,
        type: 3}
      propertyPath: m_Mesh
      value: 
      objectReference: {fileID: 0}
    - target: {fileID: 546100121944603832, guid: d5920ec2e9589fa49af231931214586b,
        type: 3}
      propertyPath: m_Mesh
      value: 
      objectReference: {fileID: 0}
    - target: {fileID: 578887857024244448, guid: d5920ec2e9589fa49af231931214586b,
        type: 3}
      propertyPath: m_Mesh
      value: 
      objectReference: {fileID: 0}
    - target: {fileID: 701348370519680124, guid: d5920ec2e9589fa49af231931214586b,
        type: 3}
      propertyPath: m_Mesh
      value: 
      objectReference: {fileID: 0}
    - target: {fileID: 757054523334673586, guid: d5920ec2e9589fa49af231931214586b,
        type: 3}
      propertyPath: m_Mesh
      value: 
      objectReference: {fileID: 0}
    - target: {fileID: 845199148273818839, guid: d5920ec2e9589fa49af231931214586b,
        type: 3}
      propertyPath: m_Mesh
      value: 
      objectReference: {fileID: 0}
    - target: {fileID: 924279849781671710, guid: d5920ec2e9589fa49af231931214586b,
        type: 3}
      propertyPath: m_Mesh
      value: 
      objectReference: {fileID: 0}
    - target: {fileID: 1056878222353102642, guid: d5920ec2e9589fa49af231931214586b,
        type: 3}
      propertyPath: m_Mesh
      value: 
      objectReference: {fileID: 0}
    - target: {fileID: 1239641511680789382, guid: d5920ec2e9589fa49af231931214586b,
        type: 3}
      propertyPath: m_Mesh
      value: 
      objectReference: {fileID: 0}
    - target: {fileID: 1282047309189954618, guid: d5920ec2e9589fa49af231931214586b,
        type: 3}
      propertyPath: m_Mesh
      value: 
      objectReference: {fileID: 0}
    - target: {fileID: 1595476633286496449, guid: d5920ec2e9589fa49af231931214586b,
        type: 3}
      propertyPath: m_Mesh
      value: 
      objectReference: {fileID: 0}
    - target: {fileID: 1798155824799872944, guid: d5920ec2e9589fa49af231931214586b,
        type: 3}
      propertyPath: m_Mesh
      value: 
      objectReference: {fileID: 0}
    - target: {fileID: 1913237877622618012, guid: d5920ec2e9589fa49af231931214586b,
        type: 3}
      propertyPath: m_Mesh
      value: 
      objectReference: {fileID: 0}
    - target: {fileID: 2117770453379308391, guid: d5920ec2e9589fa49af231931214586b,
        type: 3}
      propertyPath: m_Mesh
      value: 
      objectReference: {fileID: 0}
    - target: {fileID: 2133675099640341714, guid: d5920ec2e9589fa49af231931214586b,
        type: 3}
      propertyPath: m_Mesh
      value: 
      objectReference: {fileID: 0}
    - target: {fileID: 2141453640644857204, guid: d5920ec2e9589fa49af231931214586b,
        type: 3}
      propertyPath: m_Mesh
      value: 
      objectReference: {fileID: 0}
    - target: {fileID: 2163319812749511491, guid: d5920ec2e9589fa49af231931214586b,
        type: 3}
      propertyPath: m_Mesh
      value: 
      objectReference: {fileID: 0}
    - target: {fileID: 2194719559465597314, guid: d5920ec2e9589fa49af231931214586b,
        type: 3}
      propertyPath: m_Mesh
      value: 
      objectReference: {fileID: 0}
    - target: {fileID: 2331935834221718204, guid: d5920ec2e9589fa49af231931214586b,
        type: 3}
      propertyPath: m_Mesh
      value: 
      objectReference: {fileID: 0}
    - target: {fileID: 2342239643430556351, guid: d5920ec2e9589fa49af231931214586b,
        type: 3}
      propertyPath: m_Mesh
      value: 
      objectReference: {fileID: 0}
    - target: {fileID: 2589266444314176651, guid: d5920ec2e9589fa49af231931214586b,
        type: 3}
      propertyPath: m_Mesh
      value: 
      objectReference: {fileID: 0}
    - target: {fileID: 2674890542381158520, guid: d5920ec2e9589fa49af231931214586b,
        type: 3}
      propertyPath: m_Mesh
      value: 
      objectReference: {fileID: 0}
    - target: {fileID: 2680961509564905950, guid: d5920ec2e9589fa49af231931214586b,
        type: 3}
      propertyPath: m_Mesh
      value: 
      objectReference: {fileID: 0}
    - target: {fileID: 2776169124093050857, guid: d5920ec2e9589fa49af231931214586b,
        type: 3}
      propertyPath: m_Mesh
      value: 
      objectReference: {fileID: 0}
    - target: {fileID: 2825376327405748597, guid: d5920ec2e9589fa49af231931214586b,
        type: 3}
      propertyPath: m_Mesh
      value: 
      objectReference: {fileID: 0}
    - target: {fileID: 2826096416602043465, guid: d5920ec2e9589fa49af231931214586b,
        type: 3}
      propertyPath: m_Mesh
      value: 
      objectReference: {fileID: 0}
    - target: {fileID: 2916482196691879501, guid: d5920ec2e9589fa49af231931214586b,
        type: 3}
      propertyPath: m_Mesh
      value: 
      objectReference: {fileID: 0}
    - target: {fileID: 3202710548417792723, guid: d5920ec2e9589fa49af231931214586b,
        type: 3}
      propertyPath: m_Mesh
      value: 
      objectReference: {fileID: 0}
    - target: {fileID: 3440869032193401019, guid: d5920ec2e9589fa49af231931214586b,
        type: 3}
      propertyPath: m_Mesh
      value: 
      objectReference: {fileID: 0}
    - target: {fileID: 3546857750159495382, guid: d5920ec2e9589fa49af231931214586b,
        type: 3}
      propertyPath: m_Mesh
      value: 
      objectReference: {fileID: 0}
    - target: {fileID: 3680046033291051483, guid: d5920ec2e9589fa49af231931214586b,
        type: 3}
      propertyPath: m_Mesh
      value: 
      objectReference: {fileID: 0}
    - target: {fileID: 3868715268295519241, guid: d5920ec2e9589fa49af231931214586b,
        type: 3}
      propertyPath: m_Mesh
      value: 
      objectReference: {fileID: 0}
    - target: {fileID: 3891725116962712126, guid: d5920ec2e9589fa49af231931214586b,
        type: 3}
      propertyPath: m_Mesh
      value: 
      objectReference: {fileID: 0}
    - target: {fileID: 4114348562183916372, guid: d5920ec2e9589fa49af231931214586b,
        type: 3}
      propertyPath: m_Mesh
      value: 
      objectReference: {fileID: 0}
    - target: {fileID: 4215203080412502896, guid: d5920ec2e9589fa49af231931214586b,
        type: 3}
      propertyPath: m_Mesh
      value: 
      objectReference: {fileID: 0}
    - target: {fileID: 4227548962912587107, guid: d5920ec2e9589fa49af231931214586b,
        type: 3}
      propertyPath: m_Mesh
      value: 
      objectReference: {fileID: 0}
    - target: {fileID: 4671523691303748435, guid: d5920ec2e9589fa49af231931214586b,
        type: 3}
      propertyPath: m_Mesh
      value: 
      objectReference: {fileID: 0}
    - target: {fileID: 4672794059494635119, guid: d5920ec2e9589fa49af231931214586b,
        type: 3}
      propertyPath: m_Mesh
      value: 
      objectReference: {fileID: 0}
    - target: {fileID: 4891807238405166753, guid: d5920ec2e9589fa49af231931214586b,
        type: 3}
      propertyPath: m_Mesh
      value: 
      objectReference: {fileID: 0}
    - target: {fileID: 4962873702401150925, guid: d5920ec2e9589fa49af231931214586b,
        type: 3}
      propertyPath: m_Mesh
      value: 
      objectReference: {fileID: 0}
    - target: {fileID: 5083213517784696259, guid: d5920ec2e9589fa49af231931214586b,
        type: 3}
      propertyPath: m_Mesh
      value: 
      objectReference: {fileID: 0}
    - target: {fileID: 5172748767216938280, guid: d5920ec2e9589fa49af231931214586b,
        type: 3}
      propertyPath: m_Mesh
      value: 
      objectReference: {fileID: 0}
    - target: {fileID: 5200731347734058913, guid: d5920ec2e9589fa49af231931214586b,
        type: 3}
      propertyPath: m_Mesh
      value: 
      objectReference: {fileID: 0}
    - target: {fileID: 5431378143609932405, guid: d5920ec2e9589fa49af231931214586b,
        type: 3}
      propertyPath: m_Mesh
      value: 
      objectReference: {fileID: 0}
    - target: {fileID: 5448944307001900489, guid: d5920ec2e9589fa49af231931214586b,
        type: 3}
      propertyPath: m_Mesh
      value: 
      objectReference: {fileID: 0}
    - target: {fileID: 5735399942402868331, guid: d5920ec2e9589fa49af231931214586b,
        type: 3}
      propertyPath: m_Mesh
      value: 
      objectReference: {fileID: 0}
    - target: {fileID: 5824755026610373953, guid: d5920ec2e9589fa49af231931214586b,
        type: 3}
      propertyPath: m_Mesh
      value: 
      objectReference: {fileID: 0}
    - target: {fileID: 5963937743390997973, guid: d5920ec2e9589fa49af231931214586b,
        type: 3}
      propertyPath: m_RootOrder
      value: 2
      objectReference: {fileID: 0}
    - target: {fileID: 5963937743390997973, guid: d5920ec2e9589fa49af231931214586b,
        type: 3}
      propertyPath: m_LocalPosition.x
      value: 9
      objectReference: {fileID: 0}
    - target: {fileID: 5963937743390997973, guid: d5920ec2e9589fa49af231931214586b,
        type: 3}
      propertyPath: m_LocalPosition.y
      value: 0
      objectReference: {fileID: 0}
    - target: {fileID: 5963937743390997973, guid: d5920ec2e9589fa49af231931214586b,
        type: 3}
      propertyPath: m_LocalPosition.z
      value: 0
      objectReference: {fileID: 0}
    - target: {fileID: 5963937743390997973, guid: d5920ec2e9589fa49af231931214586b,
        type: 3}
      propertyPath: m_LocalRotation.w
      value: 1
      objectReference: {fileID: 0}
    - target: {fileID: 5963937743390997973, guid: d5920ec2e9589fa49af231931214586b,
        type: 3}
      propertyPath: m_LocalRotation.x
      value: 0
      objectReference: {fileID: 0}
    - target: {fileID: 5963937743390997973, guid: d5920ec2e9589fa49af231931214586b,
        type: 3}
      propertyPath: m_LocalRotation.y
      value: 0
      objectReference: {fileID: 0}
    - target: {fileID: 5963937743390997973, guid: d5920ec2e9589fa49af231931214586b,
        type: 3}
      propertyPath: m_LocalRotation.z
      value: 0
      objectReference: {fileID: 0}
    - target: {fileID: 5963937743390997973, guid: d5920ec2e9589fa49af231931214586b,
        type: 3}
      propertyPath: m_LocalEulerAnglesHint.x
      value: 0
      objectReference: {fileID: 0}
    - target: {fileID: 5963937743390997973, guid: d5920ec2e9589fa49af231931214586b,
        type: 3}
      propertyPath: m_LocalEulerAnglesHint.y
      value: 0
      objectReference: {fileID: 0}
    - target: {fileID: 5963937743390997973, guid: d5920ec2e9589fa49af231931214586b,
        type: 3}
      propertyPath: m_LocalEulerAnglesHint.z
      value: 0
      objectReference: {fileID: 0}
    - target: {fileID: 5963937743390997974, guid: d5920ec2e9589fa49af231931214586b,
        type: 3}
      propertyPath: m_Name
      value: Floor_3x3 (1)
      objectReference: {fileID: 0}
    - target: {fileID: 6124613892821546689, guid: d5920ec2e9589fa49af231931214586b,
        type: 3}
      propertyPath: m_Mesh
      value: 
      objectReference: {fileID: 0}
    - target: {fileID: 6258225107201889008, guid: d5920ec2e9589fa49af231931214586b,
        type: 3}
      propertyPath: m_Mesh
      value: 
      objectReference: {fileID: 0}
    - target: {fileID: 6365484799622879637, guid: d5920ec2e9589fa49af231931214586b,
        type: 3}
      propertyPath: m_Mesh
      value: 
      objectReference: {fileID: 0}
    - target: {fileID: 6611246107077854405, guid: d5920ec2e9589fa49af231931214586b,
        type: 3}
      propertyPath: m_Mesh
      value: 
      objectReference: {fileID: 0}
    - target: {fileID: 6664419149029483036, guid: d5920ec2e9589fa49af231931214586b,
        type: 3}
      propertyPath: m_Mesh
      value: 
      objectReference: {fileID: 0}
    - target: {fileID: 6719016274061282039, guid: d5920ec2e9589fa49af231931214586b,
        type: 3}
      propertyPath: m_Mesh
      value: 
      objectReference: {fileID: 0}
    - target: {fileID: 6782857558310061570, guid: d5920ec2e9589fa49af231931214586b,
        type: 3}
      propertyPath: m_Mesh
      value: 
      objectReference: {fileID: 0}
    - target: {fileID: 6964082765346037758, guid: d5920ec2e9589fa49af231931214586b,
        type: 3}
      propertyPath: m_Mesh
      value: 
      objectReference: {fileID: 0}
    - target: {fileID: 6977753984415919423, guid: d5920ec2e9589fa49af231931214586b,
        type: 3}
      propertyPath: m_Mesh
      value: 
      objectReference: {fileID: 0}
    - target: {fileID: 7140240834535594441, guid: d5920ec2e9589fa49af231931214586b,
        type: 3}
      propertyPath: m_Mesh
      value: 
      objectReference: {fileID: 0}
    - target: {fileID: 7190778521918480842, guid: d5920ec2e9589fa49af231931214586b,
        type: 3}
      propertyPath: m_Mesh
      value: 
      objectReference: {fileID: 0}
    - target: {fileID: 7395691204868043432, guid: d5920ec2e9589fa49af231931214586b,
        type: 3}
      propertyPath: m_Mesh
      value: 
      objectReference: {fileID: 0}
    - target: {fileID: 7724488543239910712, guid: d5920ec2e9589fa49af231931214586b,
        type: 3}
      propertyPath: m_Mesh
      value: 
      objectReference: {fileID: 0}
    - target: {fileID: 7806455152809356237, guid: d5920ec2e9589fa49af231931214586b,
        type: 3}
      propertyPath: m_Mesh
      value: 
      objectReference: {fileID: 0}
    - target: {fileID: 7885029645737636776, guid: d5920ec2e9589fa49af231931214586b,
        type: 3}
      propertyPath: m_Mesh
      value: 
      objectReference: {fileID: 0}
    - target: {fileID: 7951921425163871834, guid: d5920ec2e9589fa49af231931214586b,
        type: 3}
      propertyPath: m_Mesh
      value: 
      objectReference: {fileID: 0}
    - target: {fileID: 8062647075119918586, guid: d5920ec2e9589fa49af231931214586b,
        type: 3}
      propertyPath: m_Mesh
      value: 
      objectReference: {fileID: 0}
    - target: {fileID: 8197979915083076327, guid: d5920ec2e9589fa49af231931214586b,
        type: 3}
      propertyPath: m_Mesh
      value: 
      objectReference: {fileID: 0}
    - target: {fileID: 8472496723363144008, guid: d5920ec2e9589fa49af231931214586b,
        type: 3}
      propertyPath: m_Mesh
      value: 
      objectReference: {fileID: 0}
    - target: {fileID: 8563822149824232604, guid: d5920ec2e9589fa49af231931214586b,
        type: 3}
      propertyPath: m_Mesh
      value: 
      objectReference: {fileID: 0}
    - target: {fileID: 8736192575771657749, guid: d5920ec2e9589fa49af231931214586b,
        type: 3}
      propertyPath: m_Mesh
      value: 
      objectReference: {fileID: 0}
    - target: {fileID: 8890237844486218251, guid: d5920ec2e9589fa49af231931214586b,
        type: 3}
      propertyPath: m_Mesh
      value: 
      objectReference: {fileID: 0}
    - target: {fileID: 9037732081663129018, guid: d5920ec2e9589fa49af231931214586b,
        type: 3}
      propertyPath: m_Mesh
      value: 
      objectReference: {fileID: 0}
    m_RemovedComponents: []
  m_SourcePrefab: {fileID: 100100000, guid: d5920ec2e9589fa49af231931214586b, type: 3}
--- !u!4 &9125532480248172248 stripped
Transform:
  m_CorrespondingSourceObject: {fileID: 5963937743390997973, guid: d5920ec2e9589fa49af231931214586b,
    type: 3}
  m_PrefabInstance: {fileID: 3197642281408934669}
  m_PrefabAsset: {fileID: 0}
--- !u!1001 &7700101726909104931
PrefabInstance:
  m_ObjectHideFlags: 0
  serializedVersion: 2
  m_Modification:
    m_TransformParent: {fileID: 5963937743390997973}
    m_Modifications:
    - target: {fileID: 145138941627797615, guid: d5920ec2e9589fa49af231931214586b,
        type: 3}
      propertyPath: m_Mesh
      value: 
      objectReference: {fileID: 0}
    - target: {fileID: 215082247967502298, guid: d5920ec2e9589fa49af231931214586b,
        type: 3}
      propertyPath: m_Mesh
      value: 
      objectReference: {fileID: 0}
    - target: {fileID: 414537595972023990, guid: d5920ec2e9589fa49af231931214586b,
        type: 3}
      propertyPath: m_Mesh
      value: 
      objectReference: {fileID: 0}
    - target: {fileID: 546100121944603832, guid: d5920ec2e9589fa49af231931214586b,
        type: 3}
      propertyPath: m_Mesh
      value: 
      objectReference: {fileID: 0}
    - target: {fileID: 578887857024244448, guid: d5920ec2e9589fa49af231931214586b,
        type: 3}
      propertyPath: m_Mesh
      value: 
      objectReference: {fileID: 0}
    - target: {fileID: 701348370519680124, guid: d5920ec2e9589fa49af231931214586b,
        type: 3}
      propertyPath: m_Mesh
      value: 
      objectReference: {fileID: 0}
    - target: {fileID: 757054523334673586, guid: d5920ec2e9589fa49af231931214586b,
        type: 3}
      propertyPath: m_Mesh
      value: 
      objectReference: {fileID: 0}
    - target: {fileID: 845199148273818839, guid: d5920ec2e9589fa49af231931214586b,
        type: 3}
      propertyPath: m_Mesh
      value: 
      objectReference: {fileID: 0}
    - target: {fileID: 924279849781671710, guid: d5920ec2e9589fa49af231931214586b,
        type: 3}
      propertyPath: m_Mesh
      value: 
      objectReference: {fileID: 0}
    - target: {fileID: 1056878222353102642, guid: d5920ec2e9589fa49af231931214586b,
        type: 3}
      propertyPath: m_Mesh
      value: 
      objectReference: {fileID: 0}
    - target: {fileID: 1239641511680789382, guid: d5920ec2e9589fa49af231931214586b,
        type: 3}
      propertyPath: m_Mesh
      value: 
      objectReference: {fileID: 0}
    - target: {fileID: 1282047309189954618, guid: d5920ec2e9589fa49af231931214586b,
        type: 3}
      propertyPath: m_Mesh
      value: 
      objectReference: {fileID: 0}
    - target: {fileID: 1595476633286496449, guid: d5920ec2e9589fa49af231931214586b,
        type: 3}
      propertyPath: m_Mesh
      value: 
      objectReference: {fileID: 0}
    - target: {fileID: 1798155824799872944, guid: d5920ec2e9589fa49af231931214586b,
        type: 3}
      propertyPath: m_Mesh
      value: 
      objectReference: {fileID: 0}
    - target: {fileID: 1913237877622618012, guid: d5920ec2e9589fa49af231931214586b,
        type: 3}
      propertyPath: m_Mesh
      value: 
      objectReference: {fileID: 0}
    - target: {fileID: 2117770453379308391, guid: d5920ec2e9589fa49af231931214586b,
        type: 3}
      propertyPath: m_Mesh
      value: 
      objectReference: {fileID: 0}
    - target: {fileID: 2133675099640341714, guid: d5920ec2e9589fa49af231931214586b,
        type: 3}
      propertyPath: m_Mesh
      value: 
      objectReference: {fileID: 0}
    - target: {fileID: 2141453640644857204, guid: d5920ec2e9589fa49af231931214586b,
        type: 3}
      propertyPath: m_Mesh
      value: 
      objectReference: {fileID: 0}
    - target: {fileID: 2163319812749511491, guid: d5920ec2e9589fa49af231931214586b,
        type: 3}
      propertyPath: m_Mesh
      value: 
      objectReference: {fileID: 0}
    - target: {fileID: 2194719559465597314, guid: d5920ec2e9589fa49af231931214586b,
        type: 3}
      propertyPath: m_Mesh
      value: 
      objectReference: {fileID: 0}
    - target: {fileID: 2331935834221718204, guid: d5920ec2e9589fa49af231931214586b,
        type: 3}
      propertyPath: m_Mesh
      value: 
      objectReference: {fileID: 0}
    - target: {fileID: 2342239643430556351, guid: d5920ec2e9589fa49af231931214586b,
        type: 3}
      propertyPath: m_Mesh
      value: 
      objectReference: {fileID: 0}
    - target: {fileID: 2589266444314176651, guid: d5920ec2e9589fa49af231931214586b,
        type: 3}
      propertyPath: m_Mesh
      value: 
      objectReference: {fileID: 0}
    - target: {fileID: 2674890542381158520, guid: d5920ec2e9589fa49af231931214586b,
        type: 3}
      propertyPath: m_Mesh
      value: 
      objectReference: {fileID: 0}
    - target: {fileID: 2680961509564905950, guid: d5920ec2e9589fa49af231931214586b,
        type: 3}
      propertyPath: m_Mesh
      value: 
      objectReference: {fileID: 0}
    - target: {fileID: 2776169124093050857, guid: d5920ec2e9589fa49af231931214586b,
        type: 3}
      propertyPath: m_Mesh
      value: 
      objectReference: {fileID: 0}
    - target: {fileID: 2825376327405748597, guid: d5920ec2e9589fa49af231931214586b,
        type: 3}
      propertyPath: m_Mesh
      value: 
      objectReference: {fileID: 0}
    - target: {fileID: 2826096416602043465, guid: d5920ec2e9589fa49af231931214586b,
        type: 3}
      propertyPath: m_Mesh
      value: 
      objectReference: {fileID: 0}
    - target: {fileID: 2916482196691879501, guid: d5920ec2e9589fa49af231931214586b,
        type: 3}
      propertyPath: m_Mesh
      value: 
      objectReference: {fileID: 0}
    - target: {fileID: 3202710548417792723, guid: d5920ec2e9589fa49af231931214586b,
        type: 3}
      propertyPath: m_Mesh
      value: 
      objectReference: {fileID: 0}
    - target: {fileID: 3440869032193401019, guid: d5920ec2e9589fa49af231931214586b,
        type: 3}
      propertyPath: m_Mesh
      value: 
      objectReference: {fileID: 0}
    - target: {fileID: 3546857750159495382, guid: d5920ec2e9589fa49af231931214586b,
        type: 3}
      propertyPath: m_Mesh
      value: 
      objectReference: {fileID: 0}
    - target: {fileID: 3680046033291051483, guid: d5920ec2e9589fa49af231931214586b,
        type: 3}
      propertyPath: m_Mesh
      value: 
      objectReference: {fileID: 0}
    - target: {fileID: 3868715268295519241, guid: d5920ec2e9589fa49af231931214586b,
        type: 3}
      propertyPath: m_Mesh
      value: 
      objectReference: {fileID: 0}
    - target: {fileID: 3891725116962712126, guid: d5920ec2e9589fa49af231931214586b,
        type: 3}
      propertyPath: m_Mesh
      value: 
      objectReference: {fileID: 0}
    - target: {fileID: 4114348562183916372, guid: d5920ec2e9589fa49af231931214586b,
        type: 3}
      propertyPath: m_Mesh
      value: 
      objectReference: {fileID: 0}
    - target: {fileID: 4215203080412502896, guid: d5920ec2e9589fa49af231931214586b,
        type: 3}
      propertyPath: m_Mesh
      value: 
      objectReference: {fileID: 0}
    - target: {fileID: 4227548962912587107, guid: d5920ec2e9589fa49af231931214586b,
        type: 3}
      propertyPath: m_Mesh
      value: 
      objectReference: {fileID: 0}
    - target: {fileID: 4671523691303748435, guid: d5920ec2e9589fa49af231931214586b,
        type: 3}
      propertyPath: m_Mesh
      value: 
      objectReference: {fileID: 0}
    - target: {fileID: 4672794059494635119, guid: d5920ec2e9589fa49af231931214586b,
        type: 3}
      propertyPath: m_Mesh
      value: 
      objectReference: {fileID: 0}
    - target: {fileID: 4891807238405166753, guid: d5920ec2e9589fa49af231931214586b,
        type: 3}
      propertyPath: m_Mesh
      value: 
      objectReference: {fileID: 0}
    - target: {fileID: 4962873702401150925, guid: d5920ec2e9589fa49af231931214586b,
        type: 3}
      propertyPath: m_Mesh
      value: 
      objectReference: {fileID: 0}
    - target: {fileID: 5083213517784696259, guid: d5920ec2e9589fa49af231931214586b,
        type: 3}
      propertyPath: m_Mesh
      value: 
      objectReference: {fileID: 0}
    - target: {fileID: 5172748767216938280, guid: d5920ec2e9589fa49af231931214586b,
        type: 3}
      propertyPath: m_Mesh
      value: 
      objectReference: {fileID: 0}
    - target: {fileID: 5200731347734058913, guid: d5920ec2e9589fa49af231931214586b,
        type: 3}
      propertyPath: m_Mesh
      value: 
      objectReference: {fileID: 0}
    - target: {fileID: 5431378143609932405, guid: d5920ec2e9589fa49af231931214586b,
        type: 3}
      propertyPath: m_Mesh
      value: 
      objectReference: {fileID: 0}
    - target: {fileID: 5448944307001900489, guid: d5920ec2e9589fa49af231931214586b,
        type: 3}
      propertyPath: m_Mesh
      value: 
      objectReference: {fileID: 0}
    - target: {fileID: 5735399942402868331, guid: d5920ec2e9589fa49af231931214586b,
        type: 3}
      propertyPath: m_Mesh
      value: 
      objectReference: {fileID: 0}
    - target: {fileID: 5824755026610373953, guid: d5920ec2e9589fa49af231931214586b,
        type: 3}
      propertyPath: m_Mesh
      value: 
      objectReference: {fileID: 0}
    - target: {fileID: 5963937743390997973, guid: d5920ec2e9589fa49af231931214586b,
        type: 3}
      propertyPath: m_RootOrder
      value: 1
      objectReference: {fileID: 0}
    - target: {fileID: 5963937743390997973, guid: d5920ec2e9589fa49af231931214586b,
        type: 3}
      propertyPath: m_LocalPosition.x
      value: 0
      objectReference: {fileID: 0}
    - target: {fileID: 5963937743390997973, guid: d5920ec2e9589fa49af231931214586b,
        type: 3}
      propertyPath: m_LocalPosition.y
      value: 0
      objectReference: {fileID: 0}
    - target: {fileID: 5963937743390997973, guid: d5920ec2e9589fa49af231931214586b,
        type: 3}
      propertyPath: m_LocalPosition.z
      value: 9
      objectReference: {fileID: 0}
    - target: {fileID: 5963937743390997973, guid: d5920ec2e9589fa49af231931214586b,
        type: 3}
      propertyPath: m_LocalRotation.w
      value: 1
      objectReference: {fileID: 0}
    - target: {fileID: 5963937743390997973, guid: d5920ec2e9589fa49af231931214586b,
        type: 3}
      propertyPath: m_LocalRotation.x
      value: 0
      objectReference: {fileID: 0}
    - target: {fileID: 5963937743390997973, guid: d5920ec2e9589fa49af231931214586b,
        type: 3}
      propertyPath: m_LocalRotation.y
      value: 0
      objectReference: {fileID: 0}
    - target: {fileID: 5963937743390997973, guid: d5920ec2e9589fa49af231931214586b,
        type: 3}
      propertyPath: m_LocalRotation.z
      value: 0
      objectReference: {fileID: 0}
    - target: {fileID: 5963937743390997973, guid: d5920ec2e9589fa49af231931214586b,
        type: 3}
      propertyPath: m_LocalEulerAnglesHint.x
      value: 0
      objectReference: {fileID: 0}
    - target: {fileID: 5963937743390997973, guid: d5920ec2e9589fa49af231931214586b,
        type: 3}
      propertyPath: m_LocalEulerAnglesHint.y
      value: 0
      objectReference: {fileID: 0}
    - target: {fileID: 5963937743390997973, guid: d5920ec2e9589fa49af231931214586b,
        type: 3}
      propertyPath: m_LocalEulerAnglesHint.z
      value: 0
      objectReference: {fileID: 0}
    - target: {fileID: 5963937743390997974, guid: d5920ec2e9589fa49af231931214586b,
        type: 3}
      propertyPath: m_Name
      value: Floor_3x3
      objectReference: {fileID: 0}
    - target: {fileID: 6124613892821546689, guid: d5920ec2e9589fa49af231931214586b,
        type: 3}
      propertyPath: m_Mesh
      value: 
      objectReference: {fileID: 0}
    - target: {fileID: 6258225107201889008, guid: d5920ec2e9589fa49af231931214586b,
        type: 3}
      propertyPath: m_Mesh
      value: 
      objectReference: {fileID: 0}
    - target: {fileID: 6365484799622879637, guid: d5920ec2e9589fa49af231931214586b,
        type: 3}
      propertyPath: m_Mesh
      value: 
      objectReference: {fileID: 0}
    - target: {fileID: 6611246107077854405, guid: d5920ec2e9589fa49af231931214586b,
        type: 3}
      propertyPath: m_Mesh
      value: 
      objectReference: {fileID: 0}
    - target: {fileID: 6664419149029483036, guid: d5920ec2e9589fa49af231931214586b,
        type: 3}
      propertyPath: m_Mesh
      value: 
      objectReference: {fileID: 0}
    - target: {fileID: 6719016274061282039, guid: d5920ec2e9589fa49af231931214586b,
        type: 3}
      propertyPath: m_Mesh
      value: 
      objectReference: {fileID: 0}
    - target: {fileID: 6782857558310061570, guid: d5920ec2e9589fa49af231931214586b,
        type: 3}
      propertyPath: m_Mesh
      value: 
      objectReference: {fileID: 0}
    - target: {fileID: 6964082765346037758, guid: d5920ec2e9589fa49af231931214586b,
        type: 3}
      propertyPath: m_Mesh
      value: 
      objectReference: {fileID: 0}
    - target: {fileID: 6977753984415919423, guid: d5920ec2e9589fa49af231931214586b,
        type: 3}
      propertyPath: m_Mesh
      value: 
      objectReference: {fileID: 0}
    - target: {fileID: 7140240834535594441, guid: d5920ec2e9589fa49af231931214586b,
        type: 3}
      propertyPath: m_Mesh
      value: 
      objectReference: {fileID: 0}
    - target: {fileID: 7190778521918480842, guid: d5920ec2e9589fa49af231931214586b,
        type: 3}
      propertyPath: m_Mesh
      value: 
      objectReference: {fileID: 0}
    - target: {fileID: 7395691204868043432, guid: d5920ec2e9589fa49af231931214586b,
        type: 3}
      propertyPath: m_Mesh
      value: 
      objectReference: {fileID: 0}
    - target: {fileID: 7724488543239910712, guid: d5920ec2e9589fa49af231931214586b,
        type: 3}
      propertyPath: m_Mesh
      value: 
      objectReference: {fileID: 0}
    - target: {fileID: 7806455152809356237, guid: d5920ec2e9589fa49af231931214586b,
        type: 3}
      propertyPath: m_Mesh
      value: 
      objectReference: {fileID: 0}
    - target: {fileID: 7885029645737636776, guid: d5920ec2e9589fa49af231931214586b,
        type: 3}
      propertyPath: m_Mesh
      value: 
      objectReference: {fileID: 0}
    - target: {fileID: 7951921425163871834, guid: d5920ec2e9589fa49af231931214586b,
        type: 3}
      propertyPath: m_Mesh
      value: 
      objectReference: {fileID: 0}
    - target: {fileID: 8062647075119918586, guid: d5920ec2e9589fa49af231931214586b,
        type: 3}
      propertyPath: m_Mesh
      value: 
      objectReference: {fileID: 0}
    - target: {fileID: 8197979915083076327, guid: d5920ec2e9589fa49af231931214586b,
        type: 3}
      propertyPath: m_Mesh
      value: 
      objectReference: {fileID: 0}
    - target: {fileID: 8472496723363144008, guid: d5920ec2e9589fa49af231931214586b,
        type: 3}
      propertyPath: m_Mesh
      value: 
      objectReference: {fileID: 0}
    - target: {fileID: 8563822149824232604, guid: d5920ec2e9589fa49af231931214586b,
        type: 3}
      propertyPath: m_Mesh
      value: 
      objectReference: {fileID: 0}
    - target: {fileID: 8736192575771657749, guid: d5920ec2e9589fa49af231931214586b,
        type: 3}
      propertyPath: m_Mesh
      value: 
      objectReference: {fileID: 0}
    - target: {fileID: 8890237844486218251, guid: d5920ec2e9589fa49af231931214586b,
        type: 3}
      propertyPath: m_Mesh
      value: 
      objectReference: {fileID: 0}
    - target: {fileID: 9037732081663129018, guid: d5920ec2e9589fa49af231931214586b,
        type: 3}
      propertyPath: m_Mesh
      value: 
      objectReference: {fileID: 0}
    m_RemovedComponents: []
  m_SourcePrefab: {fileID: 100100000, guid: d5920ec2e9589fa49af231931214586b, type: 3}
--- !u!4 &4042095559288782582 stripped
Transform:
  m_CorrespondingSourceObject: {fileID: 5963937743390997973, guid: d5920ec2e9589fa49af231931214586b,
    type: 3}
  m_PrefabInstance: {fileID: 7700101726909104931}
  m_PrefabAsset: {fileID: 0}
